*** Darwin 7x9 ***
Turn = 0.
  012345678
0 ........t
1 .........
2 .........
3 .........
4 .........
5 .rr.r....
6 .......h.

Turn = 1.
  012345678
0 ........t
1 .........
2 .........
3 .........
4 ..r......
5 r........
6 ....r...h

Turn = 2.
  012345678
0 ........t
1 .........
2 .........
3 ..r......
4 .........
5 r........
6 ....r...h

Turn = 3.
  012345678
0 ........t
1 .........
2 ..r......
3 .........
4 r........
5 .........
6 .....r..h

Turn = 4.
  012345678
0 ........t
1 ..r......
2 .........
3 r........
4 .........
5 .........
6 ......r.h

Turn = 5.
  012345678
0 ..r.....t
1 .........
2 r........
3 .........
4 .........
5 .........
6 .......rh

Turn = 6.
  012345678
0 ..r.....t
1 r........
2 .........
3 .........
4 .........
5 .........
6 .......rr

Turn = 7.
  012345678
0 r..r....t
1 .........
2 .........
3 .........
4 .........
5 .........
6 .......rr

*** Darwin 5x9 ***
Turn = 0.
  012345678
0 .....f..h
1 ......rr.
2 .....h.r.
3 f........
4 f..rr.r..

Turn = 4.
  012345678
0 .....fhr.
1 ...r.....
2 .h.rr....
3 f.......r
4 fr.......

Turn = 8.
  012345678
0 .....fh..
1 r.r.....r
2 rr.....r.
3 r........
4 rr.......

Turn = 12.
  012345678
0 rr...fhr.
1 r........
2 .r.r.....
3 r........
4 r...r....

*** Darwin 4x8 ***
Turn = 0.
  01234567
0 f.......
1 ....t...
2 r....f..
3 r..r.r..

Turn = 1.
  01234567
0 f.......
1 ....t...
2 r....f..
3 r.r..r..

Turn = 2.
  01234567
0 f.......
1 ....t...
2 r....f..
3 rr..r...

Turn = 3.
  01234567
0 f.......
1 r...t...
2 r....f..
3 r..r....

Turn = 4.
  01234567
0 r.......
1 r...t...
2 r....f..
3 r.r.....

Turn = 5.
  01234567
0 r.......
1 r...t...
2 .r...f..
3 rr......

Turn = 6.
  01234567
0 r.......
1 .r..t...
2 ..r..f..
3 rr......

Turn = 7.
  01234567
0 .r......
1 ..r.t...
2 r..r.f..
3 .r......

Turn = 8.
  01234567
0 ..r.....
1 r..tt...
2 ....rf..
3 r.......

Turn = 9.
  01234567
0 r..r....
1 ...tt...
2 ....r.r.
3 r.......

Turn = 10.
  01234567
0 r...r...
1 ...tt...
2 r...t..r
3 ........

Turn = 11.
  01234567
0 r....r..
1 r..tt...
2 ....t..r
3 ........

Turn = 12.
  01234567
0 r.....r.
1 r..tt..r
2 ....t...
3 ........

Turn = 13.
  01234567
0 .r.....r
1 r..tt..r
2 ....t...
3 ........

Turn = 14.
  01234567
0 r.r....r
1 ...tt.r.
2 ....t...
3 ........

*** Darwin 5x5 ***
Turn = 0.
  01234
0 ..ff.
1 t..ht
2 .r...
3 .r.f.
4 ...h.

Turn = 3.
  01234
0 ..ff.
1 tt..t
2 r...r
3 ...f.
4 ....h

Turn = 6.
  01234
0 r.ff.
1 rt.rr
2 .....
3 ...f.
4 ....h

Turn = 9.
  01234
0 rrrrr
1 .rr..
2 .....
3 ...f.
4 ....h

*** Darwin 4x9 ***
Turn = 0.
  012345678
0 .r.....r.
1 ...r.....
2 ..t..h.r.
3 ..t......

Turn = 1.
  012345678
0 r..r..r..
1 .........
2 ..t.....r
3 ..t..h...

Turn = 2.
  012345678
0 r..r.r...
1 .........
2 ..t.....r
3 ..t..h...

Turn = 3.
  012345678
0 r.r.r....
1 .........
2 ..t......
3 ..t..h..r

Turn = 4.
  012345678
0 .rrr.....
1 .........
2 ..t......
3 ..t..h..r

Turn = 5.
  012345678
0 .rrr.....
1 .........
2 ..t......
3 ..t..h.r.

Turn = 6.
  012345678
0 .rrr.....
1 .........
2 ..t......
3 ..t..hr..

Turn = 7.
  012345678
0 .r..r....
1 ..r......
2 ..t......
3 ..t..rr..

Turn = 8.
  012345678
0 .r...r...
1 ..r......
2 ...r.....
3 ..t..rr..

*** Darwin 4x7 ***
Turn = 0.
  0123456
0 ...r...
1 h.fr.f.
2 ..h..f.
3 .r.t...

Turn = 3.
  0123456
0 h.....r
1 ..f..f.
2 .....f.
3 r.hr.r.

*** Darwin 8x7 ***
Turn = 0.
  0123456
0 .....r.
1 ...h...
2 ..t.h..
3 ...f...
4 .......
5 ..t....
6 ....th.
7 t....r.

Turn = 3.
  0123456
0 ..r.h..
1 .......
2 ..tt...
3 ...t...
4 .......
5 ..t....
6 ....t.h
7 t.....r

Turn = 6.
  0123456
0 r...h..
1 .......
2 ..tt...
3 ...t...
4 .......
5 ..t....
6 ....t.h
7 t....r.

Turn = 9.
  0123456
0 ..r.h..
1 .......
2 ..tt...
3 ...t...
4 .......
5 ..t....
6 ....t.h
7 t.r....

*** Darwin 4x10 ***
Turn = 0.
  0123456789
0 hfh..h....
1 tt...f...f
2 ......t...
3 .h.......h

Turn = 4.
  0123456789
0 tt..hh....
1 tt...f...f
2 .t....t...
3 .........h

*** Darwin 11x6 ***
Turn = 0.
  012345
0 .f....
1 fft..r
2 ......
3 f.....
4 ..f...
5 ..h...
6 ......
7 ......
8 f.....
9 ...rh.
0 ..t...

Turn = 4.
  012345
0 .f....
1 ftt...
2 ......
3 f.....
4 ..f...
5 .....r
6 ....r.
7 ...r..
8 f.....
9 ..h...
0 ..t...

Turn = 8.
  012345
0 .t....
1 ttt...
2 ....r.
3 f..r..
4 ..f...
5 ......
6 ......
7 ......
8 f.....
9 ..t..r
0 ..t...

*** Darwin 6x5 ***
Turn = 0.
  01234
0 ....r
1 ...t.
2 .h..t
3 ....r
4 ...t.
5 .....

Turn = 4.
  01234
0 .h..r
1 ...tt
2 ....r
3 .....
4 ...t.
5 .....

Turn = 8.
  01234
0 .h..t
1 ...tt
2 ....t
3 .....
4 ...t.
5 .....

*** Darwin 10x11 ***
Turn = 0.
  01234567890
0 .f..r......
1 ...........
2 ...........
3 ..f........
4 ...........
5 ..r...f....
6 ...........
7 f..........
8 .t.........
9 t......r...

Turn = 4.
  01234567890
0 .f.....r...
1 ...........
2 ...........
3 ..f........
4 ...........
5 ......f....
6 ...........
7 f..........
8 .t.........
9 t.r.......r

Turn = 8.
  01234567890
0 .f........r
1 ...........
2 ...........
3 ..f........
4 ...........
5 ......f....
6 ...........
7 f..........
8 .t.........
9 rr......r..

Turn = 12.
  01234567890
0 .f.........
1 ...........
2 ...........
3 ..f........
4 ..........r
5 ......f....
6 ...........
7 f..........
8 .r.........
9 rr..r......

*** Darwin 10x7 ***
Turn = 0.
  0123456
0 .......
1 ...t.f.
2 .......
3 f......
4 ..t....
5 .......
6 h..t...
7 .....r.
8 .......
9 t..h..r

Turn = 4.
  0123456
0 .......
1 ...t.f.
2 .......
3 f....r.
4 ..t....
5 ......r
6 ..tt...
7 .......
8 .......
9 t.....h

Turn = 8.
  0123456
0 .....r.
1 ...t..r
2 ......r
3 f......
4 ..t....
5 .......
6 ..tt...
7 .......
8 .......
9 t.....h

*** Darwin 4x10 ***
Turn = 0.
  0123456789
0 .f....h.h.
1 r.h..h.fr.
2 ....ht....
3 ...thth...

Turn = 4.
  0123456789
0 .fh..h....
1 h......f..
2 h....t....
3 .r.ttth.hr

*** Darwin 9x7 ***
Turn = 0.
  0123456
0 .....h.
1 .......
2 ..f....
3 .f...rh
4 .......
5 .......
6 .....r.
7 f.t....
8 .......

Turn = 1.
  0123456
0 .....h.
1 .......
2 ..f..rh
3 .f.....
4 .......
5 .......
6 ......r
7 f.t....
8 .......

Turn = 2.
  0123456
0 .....h.
1 .....rh
2 ..f....
3 .f.....
4 .......
5 .......
6 ......r
7 f.t....
8 .......

Turn = 3.
  0123456
0 .....rh
1 .....r.
2 ..f....
3 .f.....
4 .......
5 .......
6 .......
7 f.t...r
8 .......

Turn = 4.
  0123456
0 .....rh
1 .....r.
2 ..f....
3 .f.....
4 .......
5 .......
6 .......
7 f.t....
8 ......r

Turn = 5.
  0123456
0 ....r.h
1 ......r
2 ..f....
3 .f.....
4 .......
5 .......
6 .......
7 f.t....
8 ......r

Turn = 6.
  0123456
0 ...r..h
1 ......r
2 ..f....
3 .f.....
4 .......
5 .......
6 .......
7 f.t....
8 .....r.

Turn = 7.
  0123456
0 ..r...h
1 .......
2 ..f...r
3 .f.....
4 .......
5 .......
6 .......
7 f.t....
8 ....r..

Turn = 8.
  0123456
0 .r....h
1 .......
2 ..f....
3 .f....r
4 .......
5 .......
6 .......
7 f.t....
8 ...r...

Turn = 9.
  0123456
0 r.....h
1 .......
2 ..f....
3 .f.....
4 ......r
5 .......
6 .......
7 f.t....
8 ..r....

Turn = 10.
  0123456
0 r.....h
1 .......
2 ..f....
3 .f.....
4 .......
5 ......r
6 .......
7 f.t....
8 .r.....

Turn = 11.
  0123456
0 r.....h
1 .......
2 ..f....
3 .f.....
4 .......
5 .......
6 ......r
7 f.t....
8 r......

Turn = 12.
  0123456
0 r.....h
1 .......
2 ..f....
3 .f.....
4 .......
5 .......
6 .......
7 f.t...r
8 r......

Turn = 13.
  0123456
0 ......h
1 r......
2 ..f....
3 .f.....
4 .......
5 .......
6 .......
7 r.t....
8 r.....r

*** Darwin 8x8 ***
Turn = 0.
  01234567
0 ........
1 ........
2 .....fr.
3 rh.t.trh
4 ....r.r.
5 ........
6 ...t....
7 r.......

Turn = 2.
  01234567
0 ........
1 r.......
2 .....f.r
3 ...t.tt.
4 .....r..
5 .h....rh
6 ...t....
7 r.......

Turn = 4.
  01234567
0 r.......
1 ........
2 .....t..
3 ...t.ttt
4 ........
5 r.......
6 ...t.r..
7 .h....rh

Turn = 6.
  01234567
0 ........
1 r.......
2 .....t..
3 r..t.ttt
4 ........
5 ........
6 ...t....
7 .h...rrh

Turn = 8.
  01234567
0 ........
1 ........
2 r....t..
3 .r.t.ttt
4 ........
5 ........
6 ...t....
7 .h.r..rr

Turn = 10.
  01234567
0 ........
1 ........
2 .....t..
3 r.r.tttt
4 ........
5 ........
6 ...t..r.
7 .rr....r

Turn = 12.
  01234567
0 ........
1 ........
2 ....rt..
3 ...r.ttt
4 ......r.
5 r.......
6 ..rt...r
7 .r......

*** Darwin 9x10 ***
Turn = 0.
  0123456789
0 .........h
1 ..r...f...
2 ..........
3 ....r.....
4 ..........
5 ....f.....
6 ..........
7 ...h......
8 .........f

Turn = 2.
  0123456789
0 .........h
1 ....r.f...
2 ..........
3 ..r.......
4 ..........
5 ....f.....
6 ..........
7 ..........
8 ...h.....f

Turn = 4.
  0123456789
0 .........h
1 .....r....
2 ......r...
3 r.........
4 ..........
5 ....f.....
6 ..........
7 ..........
8 ...h.....f

Turn = 6.
  0123456789
0 .........h
1 .......r..
2 r.........
3 ..........
4 ......r...
5 ....f.....
6 ..........
7 ..........
8 ...h.....f

Turn = 8.
  0123456789
0 r........h
1 .........r
2 ..........
3 ..........
4 ..........
5 ....f.....
6 ......r...
7 ..........
8 ...h.....f

Turn = 10.
  0123456789
0 r........h
1 ..........
2 .........r
3 ..........
4 ..........
5 ....f.....
6 ..........
7 ..........
8 ...h..r..f

*** Darwin 9x5 ***
Turn = 0.
  01234
0 .....
1 .....
2 .....
3 .....
4 .....
5 f....
6 r....
7 .....
8 hhh.h

Turn = 1.
  01234
0 .....
1 .....
2 .....
3 .....
4 .....
5 f....
6 .r...
7 ....h
8 hh.h.

Turn = 2.
  01234
0 .....
1 .....
2 .....
3 .....
4 .....
5 f....
6 ..r.h
7 .....
8 h.h.h

Turn = 3.
  01234
0 .....
1 .....
2 .....
3 .....
4 .....
5 f...h
6 ...r.
7 .....
8 .h.hh

Turn = 4.
  01234
0 .....
1 .....
2 .....
3 .....
4 ....h
5 f....
6 ....r
7 .....
8 ..hhh

Turn = 5.
  01234
0 .....
1 .....
2 .....
3 ....h
4 .....
5 f....
6 ....r
7 .....
8 ..hhh

Turn = 6.
  01234
0 .....
1 .....
2 ....h
3 .....
4 .....
5 f....
6 .....
7 ....r
8 ..hhh

Turn = 7.
  01234
0 .....
1 ....h
2 .....
3 .....
4 .....
5 f....
6 .....
7 ....r
8 ..hhr

Turn = 8.
  01234
0 ....h
1 .....
2 .....
3 .....
4 .....
5 f....
6 .....
7 ....r
8 ..hhr

Turn = 9.
  01234
0 ....h
1 .....
2 .....
3 .....
4 .....
5 f....
6 .....
7 ...r.
8 ..hhr

Turn = 10.
  01234
0 ....h
1 .....
2 .....
3 .....
4 .....
5 f....
6 .....
7 ..r..
8 ..hhr

Turn = 11.
  01234
0 ....h
1 .....
2 .....
3 .....
4 .....
5 f....
6 .....
7 .r...
8 ..hrr

*** Darwin 8x5 ***
Turn = 0.
  01234
0 ...rh
1 .f.t.
2 h....
3 .....
4 ....f
5 .....
6 .....
7 ....f

Turn = 1.
  01234
0 ...rh
1 .f...
2 ...r.
3 h....
4 ....f
5 .....
6 .....
7 ....f

Turn = 2.
  01234
0 ....h
1 .f.r.
2 .....
3 ...r.
4 h...f
5 .....
6 .....
7 ....f

Turn = 3.
  01234
0 ....h
1 .f...
2 ...r.
3 .....
4 ...rf
5 h....
6 .....
7 ....f

Turn = 4.
  01234
0 ....h
1 .f...
2 .....
3 ...r.
4 ....f
5 ...r.
6 h....
7 ....f

Turn = 5.
  01234
0 ....h
1 .f...
2 .....
3 .....
4 ...rf
5 .....
6 ...r.
7 h...f

Turn = 6.
  01234
0 ....h
1 .f...
2 .....
3 .....
4 ....f
5 ...r.
6 .....
7 h..rf

Turn = 7.
  01234
0 ....h
1 .f...
2 .....
3 .....
4 ....f
5 .....
6 ...r.
7 h..rf

Turn = 8.
  01234
0 ....h
1 .f...
2 .....
3 .....
4 ....f
5 .....
6 ...r.
7 h.r.f

Turn = 9.
  01234
0 ....h
1 .f...
2 .....
3 .....
4 ....f
5 .....
6 ....r
7 hr..f

Turn = 10.
  01234
0 ....h
1 .f...
2 .....
3 .....
4 ....f
5 .....
6 ....r
7 rr..f

Turn = 11.
  01234
0 ....h
1 .f...
2 .....
3 .....
4 ....f
5 .....
6 ....r
7 rr..r

Turn = 12.
  01234
0 ....h
1 .f...
2 .....
3 .....
4 ....f
5 .....
6 .r..r
7 r...r

Turn = 13.
  01234
0 ....h
1 .f...
2 .....
3 .....
4 ....f
5 .r...
6 ....r
7 r..r.

Turn = 14.
  01234
0 ....h
1 .f...
2 .....
3 .....
4 .r..f
5 .....
6 .....
7 .rr.r

*** Darwin 6x6 ***
Turn = 0.
  012345
0 ..f...
1 r.f...
2 ......
3 ..fh..
4 .h.f..
5 ......

Turn = 4.
  012345
0 .rrr..
1 ......
2 ......
3 ..fh..
4 ..hf..
5 ......

Turn = 8.
  012345
0 ....r.
1 .....r
2 .r....
3 ..fh..
4 ..hf..
5 ......

Turn = 12.
  012345
0 .r....
1 ......
2 ......
3 ..fh..
4 ..hf..
5 .r...r

*** Darwin 10x9 ***
Turn = 0.
  012345678
0 .....t...
1 .........
2 ...t.....
3 ..f.h....
4 ..r....h.
5 f........
6 .....th..
7 ..t....t.
8 ....t..t.
9 .........

Turn = 1.
  012345678
0 .....t...
1 .........
2 ...t.....
3 ..rh...h.
4 ..r......
5 f........
6 .....t.h.
7 ..t....t.
8 ....t..t.
9 .........

Turn = 2.
  012345678
0 .....t...
1 .........
2 ..rt...h.
3 ..r......
4 ..r......
5 f........
6 .....t..h
7 ..t....t.
8 ....t..t.
9 .........

Turn = 3.
  012345678
0 .....t...
1 ..r....h.
2 ...t.....
3 .rr......
4 .........
5 f........
6 .....t..h
7 ..t....t.
8 ....t..t.
9 .........

Turn = 4.
  012345678
0 ..r..t.h.
1 .........
2 ..rt.....
3 r........
4 .........
5 f........
6 .....t..h
7 ..t....t.
8 ....t..t.
9 .........

Turn = 5.
  012345678
0 ..r..t.h.
1 ..r......
2 ...t.....
3 r........
4 .........
5 f........
6 .....t..h
7 ..t....t.
8 ....t..t.
9 .........

Turn = 6.
  012345678
0 ..rr.t.h.
1 .........
2 ...t.....
3 .........
4 r........
5 f........
6 .....t..h
7 ..t....t.
8 ....t..t.
9 .........

Turn = 7.
  012345678
0 ..r.tt.h.
1 .........
2 ...t.....
3 .........
4 r........
5 .........
6 r....t..h
7 ..t....t.
8 ....t..t.
9 .........

Turn = 8.
  012345678
0 ...rtt.h.
1 .........
2 ...t.....
3 .........
4 .........
5 r........
6 .....t..h
7 r.t....t.
8 ....t..t.
9 .........

Turn = 9.
  012345678
0 ...rrt.h.
1 .........
2 ...t.....
3 .........
4 .........
5 .........
6 r....t..h
7 ..t....t.
8 r...t..t.
9 .........

Turn = 10.
  012345678
0 ...rr.rh.
1 .........
2 ...t.....
3 .........
4 .........
5 .........
6 .....t..h
7 r.t....t.
8 ....t..t.
9 r........

Turn = 11.
  012345678
0 .....rrr.
1 ...r.....
2 ...t.....
3 .........
4 .........
5 .........
6 .....t..h
7 ..t....t.
8 r...t..t.
9 r........

Turn = 12.
  012345678
0 .....rr.r
1 ...r.....
2 ....r....
3 .........
4 .........
5 .........
6 .....t..h
7 ..t....t.
8 r...t..t.
9 .r.......

Turn = 13.
  012345678
0 .....r..r
1 ......r..
2 ...r.r...
3 .........
4 .........
5 .........
6 .....t..h
7 ..t....t.
8 r...t..t.
9 ..r......

Turn = 14.
  012345678
0 ....r....
1 ........r
2 .....rr..
3 ...r.....
4 .........
5 .........
6 .....t..h
7 ..t....t.
8 ....t..t.
9 r..r.....

*** Darwin 9x4 ***
Turn = 0.
  0123
0 r..t
1 f.t.
2 ..h.
3 ....
4 ...t
5 .fht
6 ....
7 ...f
8 ...h

Turn = 4.
  0123
0 ..rt
1 .rr.
2 ...h
3 ....
4 ...t
5 .f.t
6 ....
7 ...f
8 ..hh

Turn = 8.
  0123
0 ..rr
1 ...r
2 ...h
3 ....
4 .r.t
5 .r.t
6 ....
7 ...f
8 ..hh
